Exp3/cpu_tb.vcd
$date
	Tue Oct 25 00:48:16 2022
$end
$version
	Icarus Verilog
$end
$timescale
	1ps
$end
$scope module cpu_tb $end
$var wire 32 ! idata [31:0] $end
$var wire 32 " iaddr [31:0] $end
$var wire 4 # dwe [3:0] $end
$var wire 32 $ dwdata [31:0] $end
$var wire 32 % drdata [31:0] $end
$var wire 32 & daddr [31:0] $end
$var reg 1 ' clk $end
$var reg 32 ( dtmp [31:0] $end
$var reg 32 ) exp_reg [31:0] $end
$var reg 1 * reset $end
$var integer 32 + exp_file [31:0] $end
$var integer 32 , fail [31:0] $end
$var integer 32 - i [31:0] $end
$var integer 32 . log_file [31:0] $end
$var integer 32 / s [31:0] $end
$scope module u1 $end
$var wire 1 ' clk $end
$var wire 32 0 iaddr [31:0] $end
$var wire 1 * reset $end
$var wire 1 1 regwrite $end
$var wire 32 2 regwdata [31:0] $end
$var wire 3 3 regsrc [2:0] $end
$var wire 7 4 opcode [6:0] $end
$var wire 4 5 memwrite [3:0] $end
$var wire 1 6 mem2reg $end
$var wire 32 7 ldata [31:0] $end
$var wire 32 8 imm [31:0] $end
$var wire 32 9 idata [31:0] $end
$var wire 4 : dwe [3:0] $end
$var wire 32 ; dwdata [31:0] $end
$var wire 32 < drdata [31:0] $end
$var wire 32 = datawire2 [31:0] $end
$var wire 32 > datawire1 [31:0] $end
$var wire 32 ? data_reg [31:0] $end
$var wire 32 @ daddr [31:0] $end
$var wire 1 A condition_out $end
$var wire 3 B branch [2:0] $end
$var wire 1 C alusrc $end
$var wire 32 D alu_out [31:0] $end
$var wire 32 E PC_plus4 [31:0] $end
$var wire 32 F PC_next [31:0] $end
$var wire 6 G ALUop [5:0] $end
$var reg 32 H PC [31:0] $end
$scope module ALU32 $end
$var wire 32 I rv1 [31:0] $end
$var wire 32 J rv2 [31:0] $end
$var wire 6 K op [5:0] $end
$var wire 1 A condition_out $end
$var reg 32 L rvout [31:0] $end
$upscope $end
$scope module CONTROL $end
$var wire 1 C alusrc $end
$var wire 1 1 regwrite $end
$var wire 3 M regsrc [2:0] $end
$var wire 7 N opcode [6:0] $end
$var wire 4 O memwrite [3:0] $end
$var wire 1 6 mem2reg $end
$var wire 32 P idata [31:0] $end
$var wire 3 Q funct3 [2:0] $end
$var wire 3 R branch [2:0] $end
$var wire 6 S ALUop [5:0] $end
$upscope $end
$scope module IMMGEN $end
$var wire 7 T opcode [6:0] $end
$var wire 32 U imm [31:0] $end
$var wire 32 V idata [31:0] $end
$var wire 3 W funct3 [2:0] $end
$upscope $end
$scope module ProgCount $end
$var wire 32 X PC [31:0] $end
$var wire 32 Y alu_out [31:0] $end
$var wire 3 Z branch [2:0] $end
$var wire 1 A condition_out $end
$var wire 32 [ imm [31:0] $end
$var wire 32 \ PC_plus4 [31:0] $end
$var wire 32 ] PC_next [31:0] $end
$var wire 32 ^ PC_branch [31:0] $end
$upscope $end
$scope module REGFILE $end
$var wire 1 ' clk $end
$var wire 5 _ rd [4:0] $end
$var wire 5 ` rs1 [4:0] $end
$var wire 5 a rs2 [4:0] $end
$var wire 32 b rv1 [31:0] $end
$var wire 32 c rv2 [31:0] $end
$var wire 32 d wdata [31:0] $end
$var wire 1 1 we $end
$var integer 32 e i [31:0] $end
$upscope $end
$upscope $end
$scope module u2 $end
$var wire 32 f iaddr [31:0] $end
$var wire 32 g idata [31:0] $end
$upscope $end
$scope module u3 $end
$var wire 1 ' clk $end
$var wire 32 h daddr [31:0] $end
$var wire 32 i dwdata [31:0] $end
$var wire 4 j dwe [3:0] $end
$var wire 32 k drdata [31:0] $end
$var wire 30 l a [29:0] $end
$upscope $end
$upscope $end
$enddefinitions $end
#0
$dumpvars
b0 l
b0 k
b0 j
b0 i
b1 h
b100000000111110010011 g
b0 f
b100000 e
b0 d
b0 c
b0 b
b1 a
b0 `
b11111 _
b1 ^
b100 ]
b100 \
b1 [
b0 Z
b1 Y
b0 X
b0 W
b100000000111110010011 V
b1 U
b10011 T
b0 S
b0 R
b0 Q
b100000000111110010011 P
b0 O
b10011 N
b1 M
b1 L
b0 K
b1 J
b0 I
b0 H
b0 G
b100 F
b100 E
b1 D
1C
b0 B
0A
b1 @
b1 ?
b0 >
b0 =
b0 <
b0 ;
b0 :
b100000000111110010011 9
b1 8
b0 7
06
b0 5
b10011 4
b1 3
b0 2
11
b0 0
bx /
bx .
bx -
bx ,
bx +
1*
bx )
bx (
1'
b1 &
b0 %
b0 $
b0 #
b0 "
b100000000111110010011 !
$end
#5000
0'
#10000
1'
#15000
0'
#20000
1'
#25000
0'
#30000
1'
#35000
0'
#40000
1'
#45000
0'
#50000
1'
#55000
0'
#60000
1'
#65000
0'
#70000
1'
#75000
0'
#80000
1'
#85000
0'
#90000
1'
#95000
0'
#100000
b100 ?
b100 D
b100 L
b100 Y
b1 l
b100 J
b1000 F
b1000 ]
b100 &
b100 @
b100 h
b100 8
b100 U
b100 [
b10 _
b100 a
b10000000000000100010011 !
b10000000000000100010011 9
b10000000000000100010011 P
b10000000000000100010011 V
b10000000000000100010011 g
b1000 ^
b1000 E
b1000 \
b100 "
b100 0
b100 f
b100 H
b100 X
b0 -
b100 2
b100 d
1'
b10000000000000000000000000000100 +
b10000000000000000000000000000011 .
0*
#105000
0'
#110000
b111 2
b111 d
b11 J
b1100 F
b1100 ]
b11 8
b11 U
b11 [
0A
b111 ?
b1000 G
b1000 K
b1000 S
b111 D
b111 L
b111 Y
b1 l
b100 I
b100 W
b100 Q
b1 _
b11 a
b111 &
b111 @
b111 h
b100 >
b100 b
b10 `
b1100010100000010010011 !
b1100010100000010010011 9
b1100010100000010010011 P
b1100010100000010010011 V
b1100010100000010010011 g
b1011 ^
b1100 E
b1100 \
b1000 "
b1000 0
b1000 f
b1000 H
b1000 X
b1 -
1'
#115000
0'
#120000
b11 2
b11 d
01
b10000 F
b10000 ]
b100100 8
b100100 U
b100100 [
b100 J
b10 B
b10 R
b10 Z
0C
0A
b11 ?
b10001 G
b10001 K
b10001 S
b11 D
b11 L
b11 Y
b100000001000000010000000100 $
b100000001000000010000000100 ;
b100000001000000010000000100 i
b1010 l
b111 I
b1100011 T
b0 W
b1100011 N
b0 Q
b100 _
b100 =
b100 c
b10 a
b101011 &
b101011 @
b101011 h
b111 >
b111 b
b1 `
b1100011 4
b10001000001000001001100011 !
b10001000001000001001100011 9
b10001000001000001001100011 P
b10001000001000001001100011 V
b10001000001000001001100011 g
b110000 ^
b10000 E
b10000 \
b1100 "
b1100 0
b1100 f
b1100 H
b1100 X
b10 -
1'
#125000
0'
#130000
b1 2
b1 d
b101 l
b10000 8
b10000 U
b10000 [
b1 B
b1 R
b1 Z
b10101 G
b10101 K
b10101 S
b1 ?
b100000 F
b100000 ]
b1 D
b1 L
b1 Y
b111 $
b111 ;
b111 i
b111 J
b100 I
b100 W
b100 Q
b10000 _
b111 =
b111 c
b1 a
b10100 &
b10100 @
b10100 h
b100 >
b100 b
b10 `
b100010100100001100011 !
b100010100100001100011 9
b100010100100001100011 P
b100010100100001100011 V
b100010100100001100011 g
b100000 ^
b10100 E
b10100 \
b10000 "
b10000 0
b10000 f
b10000 H
b10000 X
b11 -
1'
#135000
0'
#140000
11
b0 2
b0 d
b0 8
b0 U
b0 [
b0 B
b0 R
b0 Z
b0 ?
b10000 G
b10000 K
b10000 S
1A
b0 D
b0 L
b0 Y
b0 $
b0 ;
b0 i
b0 J
b0 l
b0 I
b110011 T
b0 W
b110011 N
b0 Q
b11 _
b0 =
b0 c
b0 a
b0 &
b0 @
b0 h
b0 >
b0 b
b0 `
b110011 4
b100100 F
b100100 ]
b110110011 !
b110110011 9
b110110011 P
b110110011 V
b110110011 g
b100000 ^
b100100 E
b100100 \
b100000 "
b100000 0
b100000 f
b100000 H
b100000 X
b100 -
1'
#145000
0'
#150000
b1011 2
b1011 d
b101000 F
b101000 ]
b1 8
b1 U
b1 [
b1011 ?
b111000001110000011100000111 $
b111000001110000011100000111 ;
b111000001110000011100000111 i
0A
b1011 D
b1011 L
b1011 Y
b111 J
b1 l
b100 I
b0 _
b111 =
b111 c
b1 a
b101 &
b101 @
b101 h
b100 >
b100 b
b10 `
b100010000000000110011 !
b100010000000000110011 9
b100010000000000110011 P
b100010000000000110011 V
b100010000000000110011 g
b100101 ^
b101000 E
b101000 \
b100100 "
b100100 0
b100100 f
b100100 H
b100100 X
b101 -
1'
#155000
0'
#160000
01
b0 2
b0 d
b101100 F
b101100 ]
b1000 8
b1000 U
b1000 [
b0 ?
b1 B
b1 R
b1 Z
b10001 G
b10001 K
b10001 S
1A
b0 D
b0 L
b0 Y
b0 $
b0 ;
b0 i
b0 J
b10 l
b0 I
b1100011 T
b1 W
b1100011 N
b1 Q
b1000 _
b0 =
b0 c
b11 a
b1000 &
b1000 @
b1000 h
b0 >
b0 b
b0 `
b1100011 4
b1100000001010001100011 !
b1100000001010001100011 9
b1100000001010001100011 P
b1100000001010001100011 V
b1100000001010001100011 g
b110000 ^
b101100 E
b101100 \
b101000 "
b101000 0
b101000 f
b101000 H
b101000 X
b110 -
1'
#165000
0'
#170000
b10 B
b10 R
b10 Z
b10101 G
b10101 K
b10101 S
b110100 F
b110100 ]
b101 W
b101 Q
b0 a
b11 `
b11101010001100011 !
b11101010001100011 9
b11101010001100011 P
b11101010001100011 V
b11101010001100011 g
b110100 ^
b110000 E
b110000 \
b101100 "
b101100 0
b101100 f
b101100 H
b101100 X
b111 -
1'
#175000
0'
#180000
b0 l
b0 &
b0 @
b0 h
b0 8
b0 U
b0 [
b0 B
b0 R
b0 Z
b0 G
b0 K
b0 S
b111000 F
b111000 ]
b0 T
b0 W
b0 N
b0 Q
b0 _
b0 `
b0 4
b0 !
b0 9
b0 P
b0 V
b0 g
b110100 ^
b111000 E
b111000 \
b110100 "
b110100 0
b110100 f
b110100 H
b110100 X
b1000 -
1'
#185000
0'
#190000
b111100 F
b111100 ]
b111000 ^
b111100 E
b111100 \
b111000 "
b111000 0
b111000 f
b111000 H
b111000 X
b1001 -
1'
#195000
0'
#200000
b1000000 F
b1000000 ]
b111100 ^
b1000000 E
b1000000 \
b111100 "
b111100 0
b111100 f
b111100 H
b111100 X
b1010 -
1'
#205000
0'
#210000
b1000100 F
b1000100 ]
b1000000 ^
b1000100 E
b1000100 \
b1000000 "
b1000000 0
b1000000 f
b1000000 H
b1000000 X
b1011 -
1'
#215000
0'
#220000
b1001000 F
b1001000 ]
b1000100 ^
b1001000 E
b1001000 \
b1000100 "
b1000100 0
b1000100 f
b1000100 H
b1000100 X
b1100 -
1'
#225000
0'
#230000
b1001100 F
b1001100 ]
b1001000 ^
b1001100 E
b1001100 \
b1001000 "
b1001000 0
b1001000 f
b1001000 H
b1001000 X
b1101 -
1'
#235000
0'
#240000
b1010000 F
b1010000 ]
b1001100 ^
b1010000 E
b1010000 \
b1001100 "
b1001100 0
b1001100 f
b1001100 H
b1001100 X
b1110 -
1'
#245000
0'
#250000
b1010100 F
b1010100 ]
b1010000 ^
b1010100 E
b1010100 \
b1010000 "
b1010000 0
b1010000 f
b1010000 H
b1010000 X
b1111 -
1'
#255000
0'
#260000
b1011000 F
b1011000 ]
b1010100 ^
b1011000 E
b1011000 \
b1010100 "
b1010100 0
b1010100 f
b1010100 H
b1010100 X
b10000 -
1'
#265000
0'
#270000
b1011100 F
b1011100 ]
b1011000 ^
b1011100 E
b1011100 \
b1011000 "
b1011000 0
b1011000 f
b1011000 H
b1011000 X
b10001 -
1'
#275000
0'
#280000
b1100000 F
b1100000 ]
b1011100 ^
b1100000 E
b1100000 \
b1011100 "
b1011100 0
b1011100 f
b1011100 H
b1011100 X
b10010 -
1'
#285000
0'
#290000
b1100100 F
b1100100 ]
b1111 #
b1111 :
b1111 j
b10100 G
b10100 K
b10100 S
b1111 5
b1111 O
b100011 T
b10 W
b100011 N
b10 Q
b100011 4
b10000000100011 !
b10000000100011 9
b10000000100011 P
b10000000100011 V
b10000000100011 g
b1100000 ^
b1100100 E
b1100100 \
b1100000 "
b1100000 0
b1100000 f
b1100000 H
b1100000 X
b10011 -
1'
#295000
0'
#300000
b1 2
b1 d
b1101000 F
b1101000 ]
b1 ?
b1 l
b111 $
b111 ;
b111 i
0A
b1 D
b1 L
b1 Y
b100 &
b100 @
b100 h
b100 8
b100 U
b100 [
b111 J
b100 _
b111 =
b111 c
b1 a
b100000010001000100011 !
b100000010001000100011 9
b100000010001000100011 P
b100000010001000100011 V
b100000010001000100011 g
b1101000 ^
b1101000 E
b1101000 \
b1100100 "
b1100100 0
b1100100 f
b1100100 H
b1100100 X
b10100 -
1'
#305000
0'
#310000
b1101100 F
b1101100 ]
b10 l
b100 $
b100 ;
b100 i
b1000 &
b1000 @
b1000 h
b1000 8
b1000 U
b1000 [
b100 J
b1000 _
b100 =
b100 c
b10 a
b1000000010010000100011 !
b1000000010010000100011 9
b1000000010010000100011 P
b1000000010010000100011 V
b1000000010010000100011 g
b1110000 ^
b1101100 E
b1101100 \
b1101000 "
b1101000 0
b1101000 f
b1101000 H
b1101000 X
b0 7
b10101 -
b0 %
b0 <
b0 k
1'
#315000
0'
#320000
b0 2
b0 d
b1110000 F
b1110000 ]
b0 ?
b11 l
b0 $
b0 ;
b0 i
1A
b0 D
b0 L
b0 Y
b1100 &
b1100 @
b1100 h
b1100 8
b1100 U
b1100 [
b0 J
b1100 _
b0 =
b0 c
b11 a
b1100000010011000100011 !
b1100000010011000100011 9
b1100000010011000100011 P
b1100000010011000100011 V
b1100000010011000100011 g
b1111000 ^
b1110000 E
b1110000 \
b1101100 "
b1101100 0
b1101100 f
b1101100 H
b1101100 X
b0 7
b0 %
b0 <
b0 k
b10110 -
1'
#325000
0'
#330000
b1110100 F
b1110100 ]
b100 l
b10000 &
b10000 @
b10000 h
b10000 8
b10000 U
b10000 [
b10000 _
b100 a
b10000000010100000100011 !
b10000000010100000100011 9
b10000000010100000100011 P
b10000000010100000100011 V
b10000000010100000100011 g
b10000000 ^
b1110100 E
b1110100 \
b1110000 "
b1110000 0
b1110000 f
b1110000 H
b1110000 X
b10111 -
1'
#335000
0'
#340000
b1111000 F
b1111000 ]
b101 l
b10100 &
b10100 @
b10100 h
b10100 8
b10100 U
b10100 [
b10100 _
b101 a
b10100000010101000100011 !
b10100000010101000100011 9
b10100000010101000100011 P
b10100000010101000100011 V
b10100000010101000100011 g
b10001000 ^
b1111000 E
b1111000 \
b1110100 "
b1110100 0
b1110100 f
b1110100 H
b1110100 X
b11000 -
1'
#345000
0'
#350000
b1111100 F
b1111100 ]
b110 l
b11000 &
b11000 @
b11000 h
b11000 8
b11000 U
b11000 [
b11000 _
b110 a
b11000000010110000100011 !
b11000000010110000100011 9
b11000000010110000100011 P
b11000000010110000100011 V
b11000000010110000100011 g
b10010000 ^
b1111100 E
b1111100 \
b1111000 "
b1111000 0
b1111000 f
b1111000 H
b1111000 X
b11001 -
1'
#355000
0'
#360000
b10000000 F
b10000000 ]
b111 l
b11100 &
b11100 @
b11100 h
b11100 8
b11100 U
b11100 [
b11100 _
b111 a
b11100000010111000100011 !
b11100000010111000100011 9
b11100000010111000100011 P
b11100000010111000100011 V
b11100000010111000100011 g
b10011000 ^
b10000000 E
b10000000 \
b1111100 "
b1111100 0
b1111100 f
b1111100 H
b1111100 X
b11010 -
1'
#365000
0'
#370000
b10000100 F
b10000100 ]
b1000 l
b100000 &
b100000 @
b100000 h
b100000 8
b100000 U
b100000 [
b0 _
b1000 a
b10100000000010000000100011 !
b10100000000010000000100011 9
b10100000000010000000100011 P
b10100000000010000000100011 V
b10100000000010000000100011 g
b10100000 ^
b10000100 E
b10000100 \
b10000000 "
b10000000 0
b10000000 f
b10000000 H
b10000000 X
b11011 -
1'
#375000
0'
#380000
b10001000 F
b10001000 ]
b1001 l
b100100 &
b100100 @
b100100 h
b100100 8
b100100 U
b100100 [
b100 _
b1001 a
b10100100000010001000100011 !
b10100100000010001000100011 9
b10100100000010001000100011 P
b10100100000010001000100011 V
b10100100000010001000100011 g
b10101000 ^
b10001000 E
b10001000 \
b10000100 "
b10000100 0
b10000100 f
b10000100 H
b10000100 X
b11100 -
1'
#385000
0'
#390000
b10001100 F
b10001100 ]
b1010 l
b101000 &
b101000 @
b101000 h
b101000 8
b101000 U
b101000 [
b1000 _
b1010 a
b10101000000010010000100011 !
b10101000000010010000100011 9
b10101000000010010000100011 P
b10101000000010010000100011 V
b10101000000010010000100011 g
b10110000 ^
b10001100 E
b10001100 \
b10001000 "
b10001000 0
b10001000 f
b10001000 H
b10001000 X
b11101 -
1'
#395000
0'
#400000
b10010000 F
b10010000 ]
b1011 l
b101100 &
b101100 @
b101100 h
b101100 8
b101100 U
b101100 [
b1100 _
b1011 a
b10101100000010011000100011 !
b10101100000010011000100011 9
b10101100000010011000100011 P
b10101100000010011000100011 V
b10101100000010011000100011 g
b10111000 ^
b10010000 E
b10010000 \
b10001100 "
b10001100 0
b10001100 f
b10001100 H
b10001100 X
b11110 -
1'
#405000
0'
#410000
b10010100 F
b10010100 ]
b1100 l
b110000 &
b110000 @
b110000 h
b110000 8
b110000 U
b110000 [
b10000 _
b1100 a
b10110000000010100000100011 !
b10110000000010100000100011 9
b10110000000010100000100011 P
b10110000000010100000100011 V
b10110000000010100000100011 g
b11000000 ^
b10010100 E
b10010100 \
b10010000 "
b10010000 0
b10010000 f
b10010000 H
b10010000 X
b11111 -
1'
#415000
0'
#420000
b10011000 F
b10011000 ]
b1101 l
b110100 &
b110100 @
b110100 h
b110100 8
b110100 U
b110100 [
b10100 _
b1101 a
b10110100000010101000100011 !
b10110100000010101000100011 9
b10110100000010101000100011 P
b10110100000010101000100011 V
b10110100000010101000100011 g
b11001000 ^
b10011000 E
b10011000 \
b10010100 "
b10010100 0
b10010100 f
b10010100 H
b10010100 X
b100000 -
1'
#425000
0'
#430000
b10011100 F
b10011100 ]
b1110 l
b111000 &
b111000 @
b111000 h
b111000 8
b111000 U
b111000 [
b11000 _
b1110 a
b10111000000010110000100011 !
b10111000000010110000100011 9
b10111000000010110000100011 P
b10111000000010110000100011 V
b10111000000010110000100011 g
b11010000 ^
b10011100 E
b10011100 \
b10011000 "
b10011000 0
b10011000 f
b10011000 H
b10011000 X
b100001 -
1'
#435000
0'
#440000
b10100000 F
b10100000 ]
b1111 l
b111100 &
b111100 @
b111100 h
b111100 8
b111100 U
b111100 [
b11100 _
b1111 a
b10111100000010111000100011 !
b10111100000010111000100011 9
b10111100000010111000100011 P
b10111100000010111000100011 V
b10111100000010111000100011 g
b11011000 ^
b10100000 E
b10100000 \
b10011100 "
b10011100 0
b10011100 f
b10011100 H
b10011100 X
b100010 -
1'
#445000
0'
#450000
b10100100 F
b10100100 ]
b10000 l
b1000000 &
b1000000 @
b1000000 h
b1000000 8
b1000000 U
b1000000 [
b0 _
b10000 a
b101000000000010000000100011 !
b101000000000010000000100011 9
b101000000000010000000100011 P
b101000000000010000000100011 V
b101000000000010000000100011 g
b11100000 ^
b10100100 E
b10100100 \
b10100000 "
b10100000 0
b10100000 f
b10100000 H
b10100000 X
b100011 -
1'
#455000
0'
#460000
b10101000 F
b10101000 ]
b10001 l
b1000100 &
b1000100 @
b1000100 h
b1000100 8
b1000100 U
b1000100 [
b100 _
b10001 a
b101000100000010001000100011 !
b101000100000010001000100011 9
b101000100000010001000100011 P
b101000100000010001000100011 V
b101000100000010001000100011 g
b11101000 ^
b10101000 E
b10101000 \
b10100100 "
b10100100 0
b10100100 f
b10100100 H
b10100100 X
b100100 -
1'
#465000
0'
#470000
b10101100 F
b10101100 ]
b10010 l
b1001000 &
b1001000 @
b1001000 h
b1001000 8
b1001000 U
b1001000 [
b1000 _
b10010 a
b101001000000010010000100011 !
b101001000000010010000100011 9
b101001000000010010000100011 P
b101001000000010010000100011 V
b101001000000010010000100011 g
b11110000 ^
b10101100 E
b10101100 \
b10101000 "
b10101000 0
b10101000 f
b10101000 H
b10101000 X
b100101 -
1'
#475000
0'
#480000
b10110000 F
b10110000 ]
b10011 l
b1001100 &
b1001100 @
b1001100 h
b1001100 8
b1001100 U
b1001100 [
b1100 _
b10011 a
b101001100000010011000100011 !
b101001100000010011000100011 9
b101001100000010011000100011 P
b101001100000010011000100011 V
b101001100000010011000100011 g
b11111000 ^
b10110000 E
b10110000 \
b10101100 "
b10101100 0
b10101100 f
b10101100 H
b10101100 X
b100110 -
1'
#485000
0'
#490000
b10110100 F
b10110100 ]
b10100 l
b1010000 &
b1010000 @
b1010000 h
b1010000 8
b1010000 U
b1010000 [
b10000 _
b10100 a
b101010000000010100000100011 !
b101010000000010100000100011 9
b101010000000010100000100011 P
b101010000000010100000100011 V
b101010000000010100000100011 g
b100000000 ^
b10110100 E
b10110100 \
b10110000 "
b10110000 0
b10110000 f
b10110000 H
b10110000 X
b100111 -
1'
#495000
0'
#500000
b10111000 F
b10111000 ]
b10101 l
b1010100 &
b1010100 @
b1010100 h
b1010100 8
b1010100 U
b1010100 [
b10100 _
b10101 a
b101010100000010101000100011 !
b101010100000010101000100011 9
b101010100000010101000100011 P
b101010100000010101000100011 V
b101010100000010101000100011 g
b100001000 ^
b10111000 E
b10111000 \
b10110100 "
b10110100 0
b10110100 f
b10110100 H
b10110100 X
b101000 -
1'
#505000
0'
#510000
b10111100 F
b10111100 ]
b10110 l
b1011000 &
b1011000 @
b1011000 h
b1011000 8
b1011000 U
b1011000 [
b11000 _
b10110 a
b101011000000010110000100011 !
b101011000000010110000100011 9
b101011000000010110000100011 P
b101011000000010110000100011 V
b101011000000010110000100011 g
b100010000 ^
b10111100 E
b10111100 \
b10111000 "
b10111000 0
b10111000 f
b10111000 H
b10111000 X
b101001 -
1'
#515000
0'
#520000
b11000000 F
b11000000 ]
b10111 l
b1011100 &
b1011100 @
b1011100 h
b1011100 8
b1011100 U
b1011100 [
b11100 _
b10111 a
b101011100000010111000100011 !
b101011100000010111000100011 9
b101011100000010111000100011 P
b101011100000010111000100011 V
b101011100000010111000100011 g
b100011000 ^
b11000000 E
b11000000 \
b10111100 "
b10111100 0
b10111100 f
b10111100 H
b10111100 X
b101010 -
1'
#525000
0'
#530000
b11000100 F
b11000100 ]
b11000 l
b1100000 &
b1100000 @
b1100000 h
b1100000 8
b1100000 U
b1100000 [
b0 _
b11000 a
b111100000000010000000100011 !
b111100000000010000000100011 9
b111100000000010000000100011 P
b111100000000010000000100011 V
b111100000000010000000100011 g
b100100000 ^
b11000100 E
b11000100 \
b11000000 "
b11000000 0
b11000000 f
b11000000 H
b11000000 X
b101011 -
1'
#535000
0'
#540000
b11001000 F
b11001000 ]
b11001 l
b1100100 &
b1100100 @
b1100100 h
b1100100 8
b1100100 U
b1100100 [
b100 _
b11001 a
b111100100000010001000100011 !
b111100100000010001000100011 9
b111100100000010001000100011 P
b111100100000010001000100011 V
b111100100000010001000100011 g
b100101000 ^
b11001000 E
b11001000 \
b11000100 "
b11000100 0
b11000100 f
b11000100 H
b11000100 X
b101100 -
1'
#545000
0'
#550000
b11001100 F
b11001100 ]
b11010 l
b1101000 &
b1101000 @
b1101000 h
b1101000 8
b1101000 U
b1101000 [
b1000 _
b11010 a
b111101000000010010000100011 !
b111101000000010010000100011 9
b111101000000010010000100011 P
b111101000000010010000100011 V
b111101000000010010000100011 g
b100110000 ^
b11001100 E
b11001100 \
b11001000 "
b11001000 0
b11001000 f
b11001000 H
b11001000 X
b101101 -
1'
#555000
0'
#560000
b11010000 F
b11010000 ]
b11011 l
b1101100 &
b1101100 @
b1101100 h
b1101100 8
b1101100 U
b1101100 [
b1100 _
b11011 a
b111101100000010011000100011 !
b111101100000010011000100011 9
b111101100000010011000100011 P
b111101100000010011000100011 V
b111101100000010011000100011 g
b100111000 ^
b11010000 E
b11010000 \
b11001100 "
b11001100 0
b11001100 f
b11001100 H
b11001100 X
b101110 -
1'
#565000
0'
#570000
b11010100 F
b11010100 ]
b11100 l
b1110000 &
b1110000 @
b1110000 h
b1110000 8
b1110000 U
b1110000 [
b10000 _
b11100 a
b111110000000010100000100011 !
b111110000000010100000100011 9
b111110000000010100000100011 P
b111110000000010100000100011 V
b111110000000010100000100011 g
b101000000 ^
b11010100 E
b11010100 \
b11010000 "
b11010000 0
b11010000 f
b11010000 H
b11010000 X
b101111 -
1'
#575000
0'
#580000
b11011000 F
b11011000 ]
b11101 l
b1110100 &
b1110100 @
b1110100 h
b1110100 8
b1110100 U
b1110100 [
b10100 _
b11101 a
b111110100000010101000100011 !
b111110100000010101000100011 9
b111110100000010101000100011 P
b111110100000010101000100011 V
b111110100000010101000100011 g
b101001000 ^
b11011000 E
b11011000 \
b11010100 "
b11010100 0
b11010100 f
b11010100 H
b11010100 X
b110000 -
1'
#585000
0'
#590000
b11011100 F
b11011100 ]
b11110 l
b1111000 &
b1111000 @
b1111000 h
b1111000 8
b1111000 U
b1111000 [
b11000 _
b11110 a
b111111000000010110000100011 !
b111111000000010110000100011 9
b111111000000010110000100011 P
b111111000000010110000100011 V
b111111000000010110000100011 g
b101010000 ^
b11011100 E
b11011100 \
b11011000 "
b11011000 0
b11011000 f
b11011000 H
b11011000 X
b110001 -
1'
#595000
0'
#600000
b1 2
b1 d
b11100000 F
b11100000 ]
b1 ?
b11111 l
b1 $
b1 ;
b1 i
0A
b1 D
b1 L
b1 Y
b1111100 &
b1111100 @
b1111100 h
b1111100 8
b1111100 U
b1111100 [
b1 J
b11100 _
b1 =
b1 c
b11111 a
b111111100000010111000100011 !
b111111100000010111000100011 9
b111111100000010111000100011 P
b111111100000010111000100011 V
b111111100000010111000100011 g
b101011000 ^
b11100000 E
b11100000 \
b11011100 "
b11011100 0
b11011100 f
b11011100 H
b11011100 X
b110010 -
1'
#605000
0'
#610000
b0 2
b0 d
b0 l
b11100100 F
b11100100 ]
b0 #
b0 :
b0 j
b0 ?
b0 G
b0 K
b0 S
b0 5
b0 O
1A
b0 D
b0 L
b0 Y
b0 &
b0 @
b0 h
b0 8
b0 U
b0 [
b0 $
b0 ;
b0 i
b0 J
b0 T
b0 W
b0 N
b0 Q
b0 _
b0 =
b0 c
b0 a
b0 4
b0 !
b0 9
b0 P
b0 V
b0 g
b11100000 ^
b11100100 E
b11100100 \
b11100000 "
b11100000 0
b11100000 f
b11100000 H
b11100000 X
b0 7
b110011 -
b0 %
b0 <
b0 k
1'
#615000
0'
#620000
b11101000 F
b11101000 ]
b11100100 ^
b11101000 E
b11101000 \
b11100100 "
b11100100 0
b11100100 f
b11100100 H
b11100100 X
b110100 -
1'
#625000
0'
#630000
b11101100 F
b11101100 ]
b11101000 ^
b11101100 E
b11101100 \
b11101000 "
b11101000 0
b11101000 f
b11101000 H
b11101000 X
b110101 -
1'
#635000
0'
#640000
b11110000 F
b11110000 ]
b11101100 ^
b11110000 E
b11110000 \
b11101100 "
b11101100 0
b11101100 f
b11101100 H
b11101100 X
b110110 -
1'
#645000
0'
#650000
b11110100 F
b11110100 ]
b11110000 ^
b11110100 E
b11110100 \
b11110000 "
b11110000 0
b11110000 f
b11110000 H
b11110000 X
b110111 -
1'
#655000
0'
#660000
b11111000 F
b11111000 ]
b11110100 ^
b11111000 E
b11111000 \
b11110100 "
b11110100 0
b11110100 f
b11110100 H
b11110100 X
b111000 -
1'
#665000
0'
#670000
b11111100 F
b11111100 ]
b11111000 ^
b11111100 E
b11111100 \
b11111000 "
b11111000 0
b11111000 f
b11111000 H
b11111000 X
b111001 -
1'
#675000
0'
#680000
b100000000 F
b100000000 ]
b11111100 ^
b100000000 E
b100000000 \
b11111100 "
b11111100 0
b11111100 f
b11111100 H
b11111100 X
b111010 -
1'
#685000
0'
#690000
b100000100 F
b100000100 ]
b100000000 ^
b100000100 E
b100000100 \
b100000000 "
b100000000 0
b100000000 f
b100000000 H
b100000000 X
b111011 -
1'
#695000
0'
#700000
b100001000 F
b100001000 ]
b100000100 ^
b100001000 E
b100001000 \
b100000100 "
b100000100 0
b100000100 f
b100000100 H
b100000100 X
b111100 -
1'
#705000
0'
#710000
b100001100 F
b100001100 ]
b100001000 ^
b100001100 E
b100001100 \
b100001000 "
b100001000 0
b100001000 f
b100001000 H
b100001000 X
b111101 -
1'
#715000
0'
#720000
b100010000 F
b100010000 ]
b100001100 ^
b100010000 E
b100010000 \
b100001100 "
b100001100 0
b100001100 f
b100001100 H
b100001100 X
b111110 -
1'
#725000
0'
#730000
b100010100 F
b100010100 ]
b100010000 ^
b100010100 E
b100010100 \
b100010000 "
b100010000 0
b100010000 f
b100010000 H
b100010000 X
b111111 -
1'
#735000
0'
#740000
b100011000 F
b100011000 ]
b100010100 ^
b100011000 E
b100011000 \
b100010100 "
b100010100 0
b100010100 f
b100010100 H
b100010100 X
b1000000 -
1'
#745000
0'
#750000
b100011100 F
b100011100 ]
b100011000 ^
b100011100 E
b100011100 \
b100011000 "
b100011000 0
b100011000 f
b100011000 H
b100011000 X
b1000001 -
1'
#755000
0'
#760000
b100100000 F
b100100000 ]
b100011100 ^
b100100000 E
b100100000 \
b100011100 "
b100011100 0
b100011100 f
b100011100 H
b100011100 X
b1000010 -
1'
#765000
0'
#770000
b100100100 F
b100100100 ]
b100100000 ^
b100100100 E
b100100100 \
b100100000 "
b100100000 0
b100100000 f
b100100000 H
b100100000 X
b1000011 -
1'
#775000
0'
#780000
b100101000 F
b100101000 ]
b100100100 ^
b100101000 E
b100101000 \
b100100100 "
b100100100 0
b100100100 f
b100100100 H
b100100100 X
b1000100 -
1'
#785000
0'
#790000
b100101100 F
b100101100 ]
b100101000 ^
b100101100 E
b100101100 \
b100101000 "
b100101000 0
b100101000 f
b100101000 H
b100101000 X
b1000101 -
1'
#795000
0'
#800000
b100110000 F
b100110000 ]
b100101100 ^
b100110000 E
b100110000 \
b100101100 "
b100101100 0
b100101100 f
b100101100 H
b100101100 X
b1000110 -
1'
